
[   
    {"Image":"/khorooj.jpg","name":"خروج","gp":"+12","year":"1398","time":"123دقیقه ","like":"75%","image":"/khorooj2.jpg",
        "description":"این فیلم داستان گروهی از کشاورزان روستایی را روایت می‌کند که شرکت سهامی آب، هنگام تخلیه سد آب شور به اشتباه آب را روانهٔ زمین‌های کشاورزی آنها می‌کند و باعث خرابی تمامی محصولات آنها می‌گردد و...",
        "actor1":"فرامرز قریبیانی","actor2":" پانته آ بهرام ","actor3":"جهانگیر الماسی","director":"ابراهیم حاتمی کیا","category":"درام","url":"https://www.youtube.com/watch?v=-lT1Mi8KNYI"},
    {"Image":"/majarayenimrooz.jpg","name":"ماجرای نیمروز" ,"gp":"+12","year":"1397","time":"130دقیقه ","like":"90%","image":"/majarayenimrooz2.jpg",
        "description":"در روزهای بعد از پایان جنگ ایران و عراق، نیروهای امنیتی ایران متوجه طرح سازمان مجاهدین خلق برای حمله به ایران می‌شوند و دو مامور مخفی برای ترور فرمانده این عملیات به بغداد اعزام می‌شوند و...",
        "actor1":"محسن کیایی ","actor2":" بهنوش طباطبایی   ","actor3":"جواد عزتی ","director":" محمد حسین مهدویان","category":"برترین ها-اکشن-درام" ,"url":"https://www.youtube.com/watch?v=1aQAHqI1-gE"},
    {"Image":"/غلامرضا تختی.jpg","name":"غلامرضا تختی" ,"gp":"+12","year":"1397","time":"105دقیقه ","like":"93%","image":"/takhti.jpg",
        "description":"این فیلم به سه بخش از زندگی غلامرضا تختی در مقطع کودکی، نوجوانی و بزرگسالی و همچنین مبارزات مسابقات کشتی و فوت وی می‌پردازد.",
        "actor1":"محسن تختی ","actor2":" شاهرخ شهبازی  ","actor3":"علیرضا گودرزی ","director":"بهرام توکلی  ","category":"بیوگرافی-ورزشی-برترین ها" ,"url":"https://www.youtube.com/watch?v=35ckfuZu1eM"},
    {"Image":"/شیار143.jpg","name":"شیار143" ,"gp":"+3","year":"1392","time":"94دقیقه ","like":"89%","image":"/شیار2.jpg",
        "description":"«الفت» چشم انتظار فرزند است که خبر خوبی از راه می‌رسد. اما امتحان بزرگ در راه است و…",
        "actor1":" مریلا زارعی","actor2":"گلاره عباسی ","actor3":" جواد عزتی","director":"  نرگس آبیار","category":"بیوگرافی-برترین ها" ,"url":"https://www.youtube.com/watch?v=T8WOASRQfhM"},
    {"Image":"/آسمان زرد کم عمق.jpg","name":"آسمان زرد کم عمق" ,"gp":"+3","year":"1391","time":"81دقیقه ","like":"63%","image":"/aseman.jpg",
        "description":"زوج جوانی در مدتی کوتاه، لحظات زندگی گذشته‌شان را مرور می‌کنند و این مرور خاطرات، زندگی حال‌شان را تحت تأثیر قرار می‌دهد...فیلم با دیالوگ مهران با بازی صابر ابراینگونه آغاز می شود: من غزلو گم کردم، کسی رو که بیشتر از همه دوست داشتم، غزل برای من زیباترین موجود دنیا بود، همسرم، عشقم، دوستم،... من و اون وحشتناکترین روزها رو با هم داشتیم، کنار هم دووم آوردیم، ولی درست از اون روزی که وارد اون خونه",
        "actor1":" ترانه علیدوستی","actor2":"صابر ابر ","actor3":"سحر دولتشاهی ","director":"  بهرام توکلی","category":"درام" ,"url":"https://www.youtube.com/watch?v=N0O9dqPXvTY"},
    {"Image":"/برف روی کاج ها.jpg","name":"برف روی کاج ها" ,"gp":"+3","year":"1390","time":"95دقیقه ","like":"81%","image":"/barfrooyekajha.jpg",
        "description":"زندگی مشترک رویا و علی بعد از ۱۳ سال با بحران بزرگی مواجه می شود اکنون رویا زندگی خویش را با شرایطی جدید ادامه می دهد. که در این مسیر به شناخت متفاوتی از زندگی می رسد و...",
        "actor1":" مهناز افشار","actor2":" صابر ابر","actor3":"ویشکا آسایس ","director":" پیمان معادی ","category":"درام-عاشقانه" },

    {"Image":"/هفت دقیقه تا پاییز.jpg","name":"هفت دقیقه تا پاییز" ,"gp":"+12","year":"1388","time":"92دقیقه ","like":"75%","image":"/haftdaghighe.jpg",
        "description":"زندگی مریم و فرهاد در آستانه فروپاشی است. میترا خواهر بزرگتر مریم، برای کمک به این زندگی تلاش می کند. میترا، مریم و نیما شوهر میترا عازم سفر می شوند که...",
        "actor1":" هدیه تهرانی","actor2":" حامد بهداد","actor3":"محسن تنابنده ","director":" علیرضا امینی ","category":"درام-عاشقانه" ,"url":"https://www.youtube.com/watch?v=O9yzA2kn2kM"},

    {"Image":"/به رنگ ارغوان.jpg","name":"به رنگ ارغوان" ,"gp":"+12","year":"1383","time":"95دقیقه ","like":"83%","image":"/berangearghavan.jpg",
        "description":"شفق عضو یکی از گروهک های سیاسی که اوائل انقلاب با به پا کردن آشوب از کشور گریخته اند، پس از سال ها تصمیم می گیرد برای دیدن دخترش ارغوان که دانشجوی جنگلداری است مخفیانه به ایران بازگردد. یکی از مامورین امنیتی به نام هوشنگ به عنوان دانشجو وارد دانشگاه شده و قصد دارد تا با کنترل ارغوان، شفق را به دام اندازد. در این میان بین او و ارغوان رابطه عاطفی به وجود می آید و...",
        "actor1":" حمید فرخ نژاد","actor2":"خزر معصومی ","actor3":"کوروش تهامی ","director":" ابراهیم حاتمی کیا ","category":"درام-عاشقانه-اجتماعی" },

    {"Image":"/طلا.jpg","name":"طلا" ,"gp":"+12","year":"1398","image":"/طلا2.jpg",
        "description":"منصور نقش اصلی فیلم طلا، با هدف راه‌اندازی یک رستوران و عبور از دوران بی‌پولی، درگیر مشکلات نا‌خواسته دریا و طلا دختر برادرش می‌شود که...",
        "actor1":" هومن سیدی","actor2":"نگاهر جواهریان ","actor3":"مهرداد صدیقیان  ","director":" پرویز شهبازی ","category":"درام-اجتماعی" ,"url":"https://www.youtube.com/watch?v=1UnMsMUSRPg"},

    {"Image":"/تردید.jpg","name":"تردید" ,"gp":"+3","year":"1387","time":"116دقیقه ","like":"69%","image":"/تردید2.jpg",
        "description":"پدر  سیاوش روزبهان بر اثر حادثه ای مرده و عموی او مقدرات ثروت خود و برادر را به دست گرفته است. سیاوش عاشق مهتاب دختر عمه اش است. او طی ماجراهایی می فهمد که پدرش کشته شده و خبر ازدواج قریب الوقوع عمو با مادرش را می شنود و…",
        "actor1":"بهرام رادان ","actor2":"ترانه علیدوستی ","actor3":" حامد کمیلی","director":" کریم واروژ مسیحی ","category":"درام-جنایی" },

    {"Image":"/دیوار.jpg","name":"دیوار" ,"gp":"+3","year":"1386","time":"83دقیقه ","like":"82%","image":"/دیوار2.jpg",
        "description":"ستاره دختر بیست ساله ای است که پس از مرگ پدرش ـ که با موتورسواری روی دیوار مرگ گذران زندگی می کرده ـ زندگی سخت و فقیرانه ای با مادرش اعظم و برادر کوچک ترش شهاب دارد. شهاب اکنون حرفه پدر را ادامه می دهد اما به دلیل بی علاقگی و ناشی بودن، مشتری چندانی ندارد و از همین رو محمود که با پدر شهاب و ستاره شریک بود تصمیم به بستن و تعطیلی دیوار مرگ می گیرد و پس از افتادن شهاب از دیوار و شکستگی پایش، در این ا",
        "actor1":" گلشیته فراهانی","actor2":" مهرداد صدیقیان","actor3":" محمد کاسبی","director":" محمد علی طالبی ","category":"درام-جنایی" }
    
  
  

   
    ]